{
    "id": "org.gnome.Fractal.Devel",
    "runtime": "org.gnome.Platform",
    "runtime-version": "master",
    "sdk": "org.gnome.Sdk",
    "sdk-extensions": [
        "org.freedesktop.Sdk.Extension.rust-stable",
        "org.freedesktop.Sdk.Extension.llvm18"
    ],
    "command": "fractal",
    "finish-args": [
        "--socket=fallback-x11",
        "--socket=wayland",
        "--socket=pulseaudio",
        "--share=network",
        "--share=ipc",
        "--device=dri",
        "--env=RUST_LOG=fractal=debug,warn",
        "--env=G_MESSAGES_DEBUG=none",
        "--env=RUST_BACKTRACE=1",
        "--env=NO_POINTER_VIEWPORT=1"
    ],
    "build-options": {
        "append-ld-library-path": "/usr/lib/sdk/llvm18/lib",
        "append-path": "/usr/lib/sdk/llvm18/bin:/usr/lib/sdk/rust-stable/bin",
        "env": {
            "CARGO_TARGET_X86_64_UNKNOWN_LINUX_GNU_LINKER": "clang",
            "CARGO_TARGET_X86_64_UNKNOWN_LINUX_GNU_RUSTFLAGS": "-C link-arg=-fuse-ld=/usr/lib/sdk/rust-stable/bin/mold --cfg=ruma_identifiers_storage=\"Arc\"",
            "CARGO_TARGET_AARCH64_UNKNOWN_LINUX_GNU_LINKER": "clang",
            "CARGO_TARGET_AARCH64_UNKNOWN_LINUX_GNU_RUSTFLAGS": "-C link-arg=-fuse-ld=/usr/lib/sdk/rust-stable/bin/mold --cfg=ruma_identifiers_storage=\"Arc\""
        },
        "build-args": [
            "--share=network"
        ],
        "test-args": [
            "--socket=x11",
            "--share=network"
        ]
    },
    "modules": [
        {
            "name": "protobuf-c",
            "buildsystem": "autotools",
            "config-opts": [
                "--disable-protoc"
            ],
            "sources": [
                {
                    "type": "git",
                    "url": "https://github.com/protobuf-c/protobuf-c.git",
                    "tag": "v1.5.0",
                    "commit": "8c201f6e47a53feaab773922a743091eb6c8972a"
                }
            ]
        },
        {
            "name": "libshumate",
            "buildsystem": "meson",
            "config-opts": [
                "-Dgir=false",
                "-Dvapi=false",
                "-Dgtk_doc=false",
                "-Dvector_renderer=true"
            ],
            "sources": [
                {
                    "type": "git",
                    "url": "https://gitlab.gnome.org/GNOME/libshumate.git",
                    "tag": "1.2.2",
                    "commit": "fab290f36bb7043fe6107308ff4f91c80492aa11"
                }
            ]
        },
        {
            "name": "libde265",
            "buildsystem": "cmake",
            "config-opts": [
                "-DCMAKE_INSTALL_PREFIX=/app/lib/libheif-heic",
                "-DENABLE_SDL=Off"
            ],
            "sources": [
                {
                    "type": "git",
                    "url": "https://github.com/strukturag/libde265.git",
                    "tag": "v1.0.15"
                }
            ]
        },
        {
            "name": "libheif",
            "buildsystem": "cmake",
            "config-opts": [
                "-DWITH_LIBDE265_PLUGIN=On",
                "-DPLUGIN_DIRECTORY=/app/lib/libheif-heic/lib",
                "-DLIBDE265_INCLUDE_DIR=/app/lib/libheif-heic/include",
                "-DLIBDE265_PKGCONF_LIBRARY_DIRS=/app/lib/libheif-heic/lib",
                "-DWITH_X265=Off",
                "-DWITH_SvtEnc=Off",
                "-DWITH_SvtEnc_PLUGIN=Off",
                "-DWITH_AOM_ENCODER=Off",
                "-DWITH_RAV1E_PLUGIN=Off",
                "-DWITH_RAV1E=Off",
                "-DWITH_EXAMPLES=Off"
            ],
            "sources": [
                {
                    "type": "git",
                    "url": "https://github.com/strukturag/libheif.git",
                    "tag": "v1.17.6"
                }
            ]
        },
        {
            "name": "glycin-loaders",
            "buildsystem": "meson",
            "config-opts": [
                "-Dtests=false",
                "-Dlibglycin=false",
                "-Dintrospection=false",
                "-Dvapi=false",
                "-Dcapi_docs=false",
                "-Dpython_tests=false"
            ],
            "sources": [
                {
                    "type": "git",
                    "url": "https://gitlab.gnome.org/sophie-h/glycin.git",
                    "tag": "1.1.beta",
                    "commit": "bb5bf87ed35d3cff5fe1f094c89762e96e60c44a"
                }
            ]
        },
        {
            "name": "fractal",
            "buildsystem": "meson",
            "run-tests": true,
            "config-opts": [
                "-Dprofile=development"
            ],
            "sources": [
                {
                    "type": "dir",
                    "path": "../"
                }
            ]
        }
    ]
}
